{
  "iisSettings": {
    "windowsAuthentication": false,
    "anonymousAuthentication": true,
    "iis": {
      "applicationUrl": "http://localhost/GeoMapping.API",
      "sslPort": 0
    },
    "iisExpress": {
      "applicationUrl": "http://localhost:50766/",
      "sslPort": 0
    }
  },
  "profiles": {
    "IIS Express": {
      "commandName": "IISExpress",
      "launchBrowser": true,
      "launchUrl": "api/values",
      "environmentVariables": {
        "ASPNETCORE_ENVIRONMENT": "Development"
      }
    },
    "GeoMapping.API": {
      "commandName": "IIS",
      "workingDirectory": "D:\\Amanah\\Dev\\Geomapping\\GeoMapping.API",
      "launchUrl": "api/values",
      "environmentVariables": {
        "ASPNETCORE_ENVIRONMENT": "Development"
      },
      "applicationUrl": "http://localhost:50767/"
    }
  }
}